{"frames": [

{
	"filename": "x_button_idle",
	"frame": {"x":0,"y":0,"w":48,"h":48},
	"rotated": false,
	"trimmed": false,
	"spriteSourceSize": {"x":0,"y":0,"w":48,"h":48},
	"sourceSize": {"w":48,"h":48}
},
{
	"filename": "x_button_pressed",
	"frame": {"x":48,"y":0,"w":48,"h":48},
	"rotated": false,
	"trimmed": false,
	"spriteSourceSize": {"x":0,"y":0,"w":48,"h":48},
	"sourceSize": {"w":48,"h":48}
}],
"meta": {
	"app": "https://www.codeandweb.com/texturepacker",
	"version": "1.0",
	"image": "x_button.png",
	"format": "RGBA8888",
	"size": {"w":96,"h":48},
	"scale": "1",
	"smartupdate": "$TexturePacker:SmartUpdate:a1de0948252f4d43377824596707a8cc:3524db7a8dcc06b00d518b719532a4eb:9d988d4112889bb69680f0b94775bcc4$"
}
}
